ds202_lab5
…
## `summarise()` has grouped output by 'STATE'. You can override using the `.groups` argument.

per3 <- na.omit(per2)

per4 <- per3 %>%
  group_by(STATE) %>%
  top_n(1,deaths)

per4

## # A tibble: 52 x 3
## # Groups:   STATE [51]
##    STATE  MAKE deaths
##    <int> <int>  <int>
##  1     1    12    750
##  2     2    20     74
##  3     4    20    595
##  4     5    20    486
##  5     6    49   2385
##  6     8    12    394
##  7     9    37    158
##  8    10    37     70
##  9    11    37     30
## 10    12    12   1724
## #  with 42 more rows
…
