Team
…
## `summarise()` has grouped output by 'STATE'. You can override using the `.groups` argument.

per3 <- na.omit(per2)

per4 <- per3 %>%
  group_by(STATE) %>%
  top_n(1,deaths)

per4

## # A tibble: 52 x 3
## # Groups:   STATE [51]
##    STATE  MAKE deaths
##    <int> <int>  <int>
##  1     1    12    750
##  2     2    20     74
##  3     4    20    595
##  4     5    20    486
##  5     6    49   2385
##  6     8    12    394
##  7     9    37    158
##  8    10    37     70
##  9    11    37     30
## 10    12    12   1724
## #  with 42 more rows
…
sumDeaths <- acc %>%
  filter(MONTH >= 6 | MONTH <= 8) %>%
  select(STATE, FATALS) %>%
  group_by(STATE) %>%
  summarise(sumCount = sum(FATALS))

winDeaths <- acc %>%
  filter(MONTH >= 11 | MONTH <= 2) %>%
  select(STATE, FATALS) %>%
  group_by(STATE) %>%
  summarise(winCount = sum(FATALS))

sumDeaths

## # A tibble: 51 x 2
##    STATE sumCount
##  * <int>    <int>
##  1     1      948
##  2     2       79
##  3     4     1000
##  4     5      493
##  5     6     3602
##  6     8      648
##  7     9      278
##  8    10      119
##  9    11       31
## 10    12     3112
## #  with 41 more rows

winDeaths

## # A tibble: 51 x 2
##    STATE winCount
##  * <int>    <int>
##  1     1      286
##  2     2       28
##  3     4      323
##  4     5      147
##  5     6     1171
##  6     8      180
##  7     9       89
##  8    10       39
##  9    11       10
## 10    12     1090
## #  with 41 more rows
…
